dplyr
…
tidyr::gather

Note that we’re excluding AccidentYear and Net EP from the gathering.

long_tri <- wide_tri %>% 
  gather(Lag, CumulativePaid, -AccidentYear, -NetEP)
long_tri
## # A tibble: 100 x 4
##    AccidentYear NetEP   Lag CumulativePaid
##           <int> <dbl> <chr>          <dbl>
##  1         1988  7122     1           1346
##  2         1989  7588     1           1411
##  3         1990 10232     1           1424
##  4         1991 12731     1           2355
##  5         1992 16847     1           2544
##  6         1993 21327     1           3512
##  7         1994 21686     1           2708
##  8         1995 24955     1           2609
##  9         1996 22316     1           2652
## 10         1997 20975     1           2192
## # ... with 90 more rows
…
